           _ _                                      ______    _______        _   _             
     /\   | | |                          /\        / /  _ \  |__   __|      | | (_)            
    /  \  | | | ___  __ _ _ __ ___      /  \      / /| |_) |    | | ___  ___| |_ _ _ __   __ _ 
   / /\ \ | | |/ _ \/ _` | '__/ _ \    / /\ \    / / |  _ <     | |/ _ \/ __| __| | '_ \ / _` |
  / ____ \| | |  __/ (_| | | | (_) |  / ____ \  / /  | |_) |    | |  __/\__ \ |_| | | | | (_| |
 /_/    \_\_|_|\___|\__, |_|  \___/  /_/    \_\/_/   |____/     |_|\___||___/\__|_|_| |_|\__, |
                     __/ |                                                                __/ |
                    |___/                                                                |___/ 